3 Generating 1d data | Creating the flowsmooth R package
…
Let’s generate some data using these functions.

dt = gendat_1d(TT = 100, ntlist =rep(100,100))
print(dt)

## # A tibble: 10,000 × 4
##     time      Y    mu cluster
##    <int>  <dbl> <dbl>   <int>
##  1     1  1.09   0.51       1
##  2     1  0.355  0.51       1
##  3     1 -0.159  0.51       1
##  4     1  0.581  0.51       1
##  5     1  0.936  0.51       1
##  6     1  0.927  0.51       1
##  7     1  0.814  0.51       1
##  8     1  0.261  0.51       1
##  9     1  0.394  0.51       1
## 10     1  0.260  0.51       1
## # … with 9,990 more rows
…
