2 Package setup | Creating the flowtrend R package
…
Let’s generate some data using these functions.

dt = gendat_1d(TT = 100, ntlist =rep(100,100))
print(dt)

## # A tibble: 10,000 × 4
##     time      Y    mu cluster
##    <int>  <dbl> <dbl>   <int>
##  1     1 -1.23  -1.49       1
##  2     1 -1.39  -1.49       1
##  3     1 -1.80  -1.49       1
##  4     1 -1.78  -1.49       1
##  5     1 -1.24  -1.49       1
##  6     1 -0.751 -1.49       1
##  7     1 -0.905 -1.49       1
##  8     1 -2.50  -1.49       1
##  9     1 -2.37  -1.49       1
## 10     1 -1.86  -1.49       1
## # ℹ 9,990 more rows
…
